﻿"Variable / Field Name","Form Name","Section Header","Field Type","Field Label","Choices, Calculations, OR Slider Labels","Field Note","Text Validation Type OR Show Slider Number","Text Validation Min","Text Validation Max",Identifier?,"Branching Logic (Show field only if...)","Required Field?","Custom Alignment","Question Number (surveys only)","Matrix Group Name","Matrix Ranking?","Field Annotation"
date_level,checking_log,,text,"Date LEVEL",,,date_dmy,,,y,,,,,,,
cryoconcv_manag,checking_log,,radio,"cryopreservation management","1, Control | 2, Reception Azote",,,,,,,,,,,,
drln,checking_log,,text,"Date received Liquid Nitrogen",,,date_dmy,,,,"[cryoconcv_manag] = '2'",,,,,,
numb_liter_receiv,checking_log,,text,"Number of Liters Received",,,number,5,300,,"[cryoconcv_manag] = '2'",,,,,,
initia_receiv,checking_log,,text,"initial of the one who received",,,,,,,"[cryoconcv_manag] = '2'",,,,,,
date_refill,checking_log,,text,"Date refill",,,date_dmy,,,,"[cryoconcv_manag] = '2'",,,,,,
numb_liter_use,checking_log,,text,"number of liters to use",,,number,,,,"[cryoconcv_manag] = '2'",y,,,,,
container,checking_log,,checkbox,container,"1, Tanks | 2, Dry Shipper",,,,,,"[cryoconcv_manag] = '2'",y,,,,,
numb_loaded_tank,checking_log,,text,"Number of Loaded Tanks",,,number,,,,"[container(1)] = '1'",,,,,,
numb_load_dryship,checking_log,,text,"Number of Loaded Dry Shypper",,,number,1,5,,"[container(2)] = '1'",,,,,,
tank_min_level,tanks,,dropdown,"tank and minimum level","1, MOUNGONGO (40cm) | 2, CITHARE  (30cm) | 3, M'VET (25cm) | 4, NKUL  (30cm) | 5, SËMËLË  (30cm) | 6, ÌLÙ SAKARA (30cm) | 7, Ìlù Gangan (30cm) | 8, Other",,,,,,"[cryoconcv_manag] = '1' or [cryoconcv_manag] = '2'",,,,,,
other_tank,tanks,,text,"Other Tank",,,,,,,"[tank_min_level] = '8'",,,,,,
level_before,tanks,,text,"Level before
",,,number,15,60,,"[cryoconcv_manag] = '1' or [cryoconcv_manag] = '2'",,,,,,
refill,tanks,,yesno,Refill,,,,,,,"[cryoconcv_manag] = '1' or [cryoconcv_manag] = '2'",,,,,,
level_after,tanks,,text,"level after",,,number,25,60,,"[refill] = '1'",,,,,,
initial_tank,tanks,,text,"Initials Tanks",,,,,,,"[cryoconcv_manag] = '1' or [cryoconcv_manag] = '2'",,,,,,
name_dryshy,dry_shipper,,text,"Name Dry Shypper",,,,,,,"[container(2)] = '1'",,,,,,
date_ship,dry_shipper,,text,"date shipping",,,date_dmy,,,,"[container(2)] = '1'",,,,,,
hour_ship,dry_shipper,,text,Hours,,,time,,,,"[container(2)] = '1'",,,,,,
level_shi,dry_shipper,,text,Level,,,number,,,,"[container(2)] = '1'",,,,,,
refill_shi,dry_shipper,,text,Refill,,,date_dmy,,,,"[container(2)] = '1'",,,,,,
init_shyp,dry_shipper,,text,"Initial Shyping",,,,,,,"[container(2)] = '1'",,,,,,
